n64_gamecat_switched/sim/gamecat.vcd
$timescale 1ns $end
$scope module gamecat $end
$var wire 1 ! ALE_L $end
$var wire 1 " ALE_H $end
$var wire 1 # READ_N $end
$var wire 1 $ WRITE_N $end
$var wire 1 % CART_EN $end
$var wire 16 & AD $end
$upscope $end
$enddefinitions $end
#0
$dumpvars
0!
0"
0#
0$
0%
b0 &
$end
#0
1#
1$
#1000
1!
1"
#1020
b1001000000000 &
#1230
0"
#1260
b0 &
#2040
0!
#2900
b1000100010001 &
#3000
0#
#3500
1#
#3550
b0 &
#3900
b10001000100010 &
#4000
0#
#4500
1#
#4506
1%
#4550
b0 &
#4900
b11001100110011 &
#5000
0#
#5006
b0 &
#5013
b1011111011101111 &
#5500
1#
#5506
b11001100110011 &
#5510
0%
#5526
1%
#5550
b0 &
#5900
b100010001000100 &
#6000
0#
#6006
b1011111011101111 &
#6013
b1101111010101101 &
#6500
1#
#6506
b100010001000100 &
#6510
0%
#6550
b0 &
#6900
b101010101010101 &
#7000
0#
#7500
1#
#7550
b0 &
#7900
b110011001100110 &
#8000
0#
#8500
1#
#8550
b0 &
#8900
b111011101110111 &
#9000
0#
#9500
1#
#9550
b0 &
#9900
b1000100010001000 &
#10000
0#
#10500
1#
#10550
b0 &
#20000
1!
1"
#20020
b1000000000000 &
#20230
0"
#20260
b0 &
#21040
0!
#21900
b1010101010101010 &
#22000
0#
#22500
1#
#22550
b0 &
#22900
b1011101110111011 &
#23000
0#
#23500
1#
#23550
b0 &
#23900
b1100110011001100 &
#24000
0#
#24500
1#
#24550
b0 &
#24900
b1101110111011101 &
#25000
0#
#25500
1#
#25550
b0 &
